title,abstract,url
An IT-architecture to support energy efficiency and the usage of flexible loads at a container terminal,,http://iai-uiserv1.iai.fzk.de/ictensure/site?mod=litdb&subject=art&pid=X91CD3D73&action=detail
A Method of Resource Isolation and Security Enhancement of Container Cloud Based on Multiple Security Domains,,https://doi.org/10.1007/978-3-030-43306-2_90
Automated Containerized Medical Image Processing Based on MITK and Python - A Modular System to Implement Medical Image Processing Pipelines and Visualize Meta Data,,https://doi.org/10.1007/978-3-662-56537-7_82
An Evaluation of Frameworks for Microservices Development,,https://doi.org/10.1007/978-3-030-71906-7_8
Simulation Model for Container Logistics System of Waterway Transportation,,https://doi.org/10.1007/978-981-10-2663-8_33
Microservice-based Edge Device Architecture for Video Analytics,,https://doi.org/10.1145/3453142.3491283
WebAssembly Modules as Lightweight Containers for Liquid IoT Applications,,https://doi.org/10.1007/978-3-030-74296-6_25
Research on the Security Protection Scheme for Container-Based Cloud Platform Node Based on BlockChain Technology,,https://doi.org/10.1007/978-981-13-2203-7_3
Container Cluster Scheduling Strategy Based on Delay Decision Under Multidimensional Constraints,,https://doi.org/10.1007/978-981-15-7981-3_51
An Online Model of Berth and Quay Crane Integrated Allocation in Container Terminals,,https://doi.org/10.1007/978-3-319-26626-8_53
Formalising Privacy-Preserving Constraints in Microservices Architecture,,https://doi.org/10.1007/978-3-030-63406-3_19
Approximating Minimum-Area Rectangular and Convex Containers for Packing Convex Polygons,,https://doi.org/10.1007/978-3-662-48350-3_3
Does Generative AI Generate Smells Related to Container Orchestration?: An Exploratory Study with Kubernetes Manifests,,https://doi.org/10.1145/3643991.3645079
Analysis of Reshuffling Cost at a Container Terminal,,https://doi.org/10.1007/978-3-319-39639-2_43
Language Processing Modelling Notation - Orchestration of NLP Microservices,,https://doi.org/10.1007/978-3-319-59415-6_44
x2OMSAC - An Ontology Population Framework for the Ontology of Microservices Architecture Concepts,,https://doi.org/10.1007/978-3-031-45645-9_25
Model-Driven Methodology for Developing Chatbots Based on Microservice Architecture,,None
A Case Study on Measuring the Size of Microservices,,https://doi.org/10.1007/978-3-319-95174-4_36
Alternative Performance Indicators for Optimizing Container Assignment in a Synchromodal Transportation Network,,https://doi.org/10.1007/978-3-030-00898-7_14
Eficiency of REST and gRPC Realizing Communication Tasks in Microservice-Based Ecosystems,,https://doi.org/10.3233/FAIA220242
Understanding Automated Continuous Integration for Containerized Smart Energy IoT-Cloud Service,,https://doi.org/10.1007/978-981-10-7605-3_203
An Approach to Modeling Microservice Solutions,,https://doi.org/10.1007/978-981-13-1056-0_53
A beam search approach to the container loading problem,,https://doi.org/10.1016/j.cor.2013.09.003
